src/traces/sim_signals.trace.vcd
$date
     Mar 09, 2020       16:54:32
$end

$version
              SystemC 2.3.0_pub_rev_20111121-OSCI --- Nov 24 2019 16:06:02
$end

$scope module SystemC $end
$var wire    1  aaa  clk       $end
$var wire    1  aab  reset       $end
$var wire    1  aac  enable       $end
$var wire   32  aad  outputStream [31:0]  $end
$upscope $end
$enddefinitions  $end

$comment
All initial values are dumped below at time 0 sec = 0 timescale units.
$end

$dumpvars
0aaa
0aab
0aac
b0 aad
$end

#2
1aab

#22
0aab
1aac

#24
1aaa

#26
0aaa

#28
1aaa

#30
0aaa

#32
1aaa
b1 aad

#34
0aaa

#36
1aaa
b10 aad

#38
0aaa

#40
1aaa
b11 aad

#42
0aaa

#44
1aaa
b100 aad

#46
0aaa

#48
1aaa

#50
0aaa

#52
1aaa
b1 aad

#54
0aaa

#56
1aaa
b10 aad

#58
0aaa

#60
1aaa
b11 aad

#62
0aaa

#64
1aaa
b100 aad

#66
0aaa

#68
1aaa

#70
0aaa

#72
1aab

#92
0aab

#94
1aaa

#96
0aaa

#98
1aaa

#100
0aaa

#102
1aaa
b1 aad

#104
0aaa

#106
1aaa
b10 aad

#108
0aaa

#110
1aaa
b11 aad

#112
0aaa

#114
1aaa
b100 aad

#116
0aaa

#118
1aaa

#120
0aaa

#122
1aaa
b1 aad

#124
0aaa

#126
1aaa
b10 aad

#128
0aaa

#130
1aaa
b11 aad

#132
0aaa

#134
1aaa
b100 aad

#136
0aaa

#138
1aaa

#140
0aaa

#145
1aab

