src/traces/sim_signals.trace.vcd
$date
     Feb 24, 2020       01:05:59
$end

$version
              SystemC 2.3.0_pub_rev_20111121-OSCI --- Nov 24 2019 16:06:02
$end

$timescale
     1 ps
$end

$scope module SystemC $end
$var wire    1  aaa  clk       $end
$var wire    1  aab  reset       $end
$var wire    1  aac  enable       $end
$var wire   32  aad  counter [31:0]  $end
$upscope $end
$enddefinitions  $end

$comment
All initial values are dumped below at time 0 sec = 0 timescale units.
$end

$dumpvars
0aaa
0aab
0aac
b0 aad
$end

#1000
1aab

#11000
0aab
1aac

#12000
1aaa
b1 aad

#13000
0aaa

#14000
1aaa
b10 aad

#15000
0aaa

#16000
1aaa
b11 aad

#17000
0aaa

#18000
1aaa
b100 aad

#19000
0aaa

#20000
1aaa
b101 aad

#21000
0aaa
0aac

#22000
1aaa

#23000
0aaa

#24000
1aaa

#25000
0aaa

#26000
1aaa

#27000
0aaa

#28000
1aaa

#29000
0aaa

#30000
1aaa

#31000
0aaa
1aac

#32000
1aaa
b110 aad

#33000
0aaa

#34000
1aaa
b111 aad

#35000
0aaa

#36000
1aaa
b1000 aad

#37000
0aaa

#38000
1aaa
b1001 aad

#39000
0aaa

#40000
1aaa
b1010 aad

#41000
0aaa
1aab
b0 aad

