src/traces/sim_signals.trace.vcd
$date
     Mar 07, 2020       17:11:13
$end

$version
              SystemC 2.3.0_pub_rev_20111121-OSCI --- Nov 24 2019 16:06:02
$end

$scope module SystemC $end
$var wire    1  aaa  clk       $end
$var wire    1  aab  reset       $end
$var wire   32  aac  psumIn [31:0]  $end
$var wire   32  aad  pixelIn0 [31:0]  $end
$var wire   32  aae  psumOut [31:0]  $end
$upscope $end
$enddefinitions  $end

$comment
All initial values are dumped below at time 0 sec = 0 timescale units.
$end

$dumpvars
0aaa
0aab
b0 aac
b0 aad
b0 aae
$end

#2
1aab

#22
0aab
b1 aac
b1 aad

#26
1aaa
b11 aae

#28
0aaa
b10 aac
b10 aad

#30
1aaa
b110 aae

#32
0aaa
b11 aac
b11 aad

#34
1aaa
b1001 aae

#36
0aaa
b100 aac
b100 aad

#38
1aaa
b1100 aae

#40
0aaa
b101 aac
b101 aad

#42
1aaa
b1111 aae

#44
0aaa
b110 aac
b110 aad

#46
1aaa
b10010 aae

#48
0aaa
b111 aac
b111 aad

#50
1aaa
b10101 aae

#52
0aaa
b1000 aac
b1000 aad

#54
1aaa
b11000 aae

#56
0aaa
b1001 aac
b1001 aad

#58
1aaa
b11011 aae

#60
0aaa
b1010 aac
b1010 aad

#62
1aaa
b11110 aae

#67
1aab
b0 aae

