src/traces/sim_signals.trace.vcd
$date
     Feb 23, 2020       18:10:03
$end

$version
              SystemC 2.3.0_pub_rev_20111121-OSCI --- Nov 24 2019 16:06:02
$end

$timescale
     1 ps
$end

$scope module SystemC $end
$var wire    1  aaa  clk       $end
$var wire    1  aab  reset       $end
$var wire   32  aac  psumIn [31:0]  $end
$var wire   32  aad  pixelIn0 [31:0]  $end
$var wire   32  aae  psumOut [31:0]  $end
$upscope $end
$enddefinitions  $end

$comment
All initial values are dumped below at time 0 sec = 0 timescale units.
$end

$dumpvars
0aaa
0aab
b0 aac
b0 aad
b0 aae
$end

#1000
1aab

#11000
0aab
b1 aac
b1 aad

#13000
1aaa
b11 aae

#14000
0aaa
b10 aac
b10 aad

#15000
1aaa
b110 aae

#16000
0aaa
b11 aac
b11 aad

#17000
1aaa
b1001 aae

#18000
0aaa
b100 aac
b100 aad

#19000
1aaa
b1100 aae

#20000
0aaa
b101 aac
b101 aad

#21000
1aaa
b1111 aae

#22000
0aaa
b110 aac
b110 aad

#23000
1aaa
b10010 aae

#24000
0aaa
b111 aac
b111 aad

#25000
1aaa
b10101 aae

#26000
0aaa
b1000 aac
b1000 aad

#27000
1aaa
b11000 aae

#28000
0aaa
b1001 aac
b1001 aad

#29000
1aaa
b11011 aae

#30000
0aaa
b1010 aac
b1010 aad

#31000
1aaa
b11110 aae

#33500
1aab
b0 aae

